Data Science Insight 1: Time Series Analysis in R
…
Time series analysis is fundamentally the study of data that has a time component. Forecasting, using time series data to try to make predictions for the future, is one of the most important applications of time series analysis. In this Data Science Insight, Im going to walk through some basic elements of Tidyverts and then Ill focus in on visualization of time series data using Tiydverts. Hopefully we can all learn a little bit!

2 Getting to Some Time Series Anlaysis

The basic data structure of Tidyverts is the tsibble. Basically, a tsibble is the Tidyverts counterpart to a tibble from Tidyverse, which of course is just an augmented data.frame. So, why do we use a tsibble rather than a data.frame or tibble? An example might help here. Im using the classic nycflights13 library for data here, specifically extracting weather data.

weather_data <- nycflights13::weather %>%
  select(origin, time_hour, temp, humid, precip)

weather_data <- weather_data %>% as_tsibble(index = time_hour, key = origin)

weather_data

## # A tsibble: 26,115 x 5 [1h] <America/New_York>
## # Key:       origin [3]
##    origin time_hour            temp humid precip
##    <chr>  <dttm>              <dbl> <dbl>  <dbl>
##  1 EWR    2013-01-01 01:00:00  39.0  59.4      0
##  2 EWR    2013-01-01 02:00:00  39.0  61.6      0
##  3 EWR    2013-01-01 03:00:00  39.0  64.4      0
##  4 EWR    2013-01-01 04:00:00  39.9  62.2      0
##  5 EWR    2013-01-01 05:00:00  39.0  64.4      0
##  6 EWR    2013-01-01 06:00:00  37.9  67.2      0
##  7 EWR    2013-01-01 07:00:00  39.0  64.4      0
##  8 EWR    2013-01-01 08:00:00  39.9  62.2      0
##  9 EWR    2013-01-01 09:00:00  39.9  62.2      0
## 10 EWR    2013-01-01 10:00:00  41    59.6      0
## #  with 26,105 more rows

Notice that nycflights13::weather comes in as a tibble, but we were able to convert it over to a tsibble by simply using tsibble::as_tsibble(), providing an index and a key. The index is just the time series component and the key is the differentiating identifier for observations with the same index. So, between the index and the key, we can uniquely identify our time series observations!

After getting to a tsibble, we can perform Tidyverse-esque operations that play nicely with the temporal aspect of our data. For instance, tsibble::index_by() and dplyr::summarize() is an analogous grouping of operations to dplyr::group_by() and dplyr::summarize().

weather_data %>% 
  group_by_key() %>% #maintaining differentiation between keys
  index_by(date = ~ as_date(.)) %>% #adding a date column
  summarize(max_precip = max(precip), #summarizing, grouped by key and date
            avg_precip = mean(precip),
            min_precip = min(precip))

## # A tsibble: 1,092 x 5 [1D]
## # Key:       origin [3]
##    origin date       max_precip avg_precip min_precip
##    <chr>  <date>          <dbl>      <dbl>      <dbl>
##  1 EWR    2013-01-01          0          0          0
##  2 EWR    2013-01-02          0          0          0
##  3 EWR    2013-01-03          0          0          0
##  4 EWR    2013-01-04          0          0          0
##  5 EWR    2013-01-05          0          0          0
##  6 EWR    2013-01-06          0          0          0
##  7 EWR    2013-01-07          0          0          0
##  8 EWR    2013-01-08          0          0          0
##  9 EWR    2013-01-09          0          0          0
## 10 EWR    2013-01-10          0          0          0
## #  with 1,082 more rows
…
